<?xml version="1.0" encoding="UTF-8"?>
<svg width="48" height="48" version="1.1" viewBox="0 0 48 48" xmlns="http://www.w3.org/2000/svg">
<g transform="matrix(5.315 0 0 5.315 14.5 -14.57)" style="stroke-width:.6667">
<g transform="translate(-5.08)" style="stroke-width:.6667">
<path d="m5.582 9.787c-.219 0-.181-.083-.257-.291l-.643-2.116 3.981-2.487.465.122-.386 1.058z" style="fill:#b3b3b3;stroke-width:.6667"/>
<path d="m5.582 9.787c.169 0 .243-.077.337-.169.145-.142 2.024-1.968 2.024-1.968l-1.151-.279-1.068.675-.142 1.684z" style="fill:#666;stroke-width:.6667"/>
<path d="m5.697 8.07 2.719 2.01c.31.171.534.083.612-.288l1.107-5.216c.113-.454-.173-.66-.47-.526l-6.5 2.507c-.444.178-.441.425-.081.536l1.668.521 3.861-2.436c.182-.111.35-.051.212.071z" style="fill:#fff;stroke-width:.6667"/>
</g>
</g>
</svg>
